{
  "apps" : [{
    "name"        : "twitter-video",
    "script"      : "index.js",
    "env": {
      "DISPLAY": ":99",
      "DEBUG" : "nightmare"
    }
  },
    {
      "name"        : "Xvfb",
      "interpreter" : "none",
      "script"      : "Xvfb",
      "args"        : ":99"
    }]
}
